<?xml version="1.0" standalone="no"?>
<!DOCTYPE svg PUBLIC "-//W3C//DTD SVG 20010904//EN"
 "http://www.w3.org/TR/2001/REC-SVG-20010904/DTD/svg10.dtd">
<svg version="1.0" xmlns="http://www.w3.org/2000/svg"
 width="1024.000000pt" height="1024.000000pt" viewBox="0 0 1024.000000 1024.000000"
 preserveAspectRatio="xMidYMid meet">

<g transform="translate(0.000000,1024.000000) scale(0.100000,-0.100000)"
fill="#000000" stroke="none">
<path d="M0 5120 l0 -5120 5120 0 5120 0 0 5120 0 5120 -5120 0 -5120 0 0
-5120z m5513 3078 c17 -83 122 -440 138 -473 40 -81 97 -113 374 -210 72 -25
234 -97 361 -160 127 -63 240 -115 251 -115 21 0 177 101 335 217 59 44 94 63
106 59 38 -12 572 -559 572 -587 0 -4 -49 -85 -109 -181 -133 -213 -161 -267
-161 -314 0 -25 19 -71 65 -155 76 -140 145 -295 211 -473 63 -170 61 -169
404 -240 l195 -41 3 -426 2 -426 -72 -12 c-270 -48 -457 -112 -477 -164 -5
-12 -37 -110 -71 -216 -67 -209 -119 -340 -207 -514 -32 -65 -55 -124 -55
-142 0 -44 17 -74 148 -267 63 -91 117 -173 120 -182 9 -23 -166 -224 -378
-433 -102 -101 -189 -183 -194 -183 -5 0 -34 18 -64 40 -214 152 -342 233
-369 233 -17 0 -69 -23 -127 -58 -185 -108 -422 -213 -624 -277 -52 -17 -107
-37 -122 -44 -44 -23 -98 -74 -118 -113 -19 -38 -130 -424 -130 -454 0 -16
-27 -17 -398 -17 l-397 0 -67 235 c-38 135 -76 247 -87 261 -40 51 -108 92
-211 129 -194 69 -374 146 -520 222 -259 137 -233 126 -271 110 -19 -8 -114
-69 -211 -136 -98 -67 -183 -124 -191 -127 -26 -10 -422 391 -555 562 l-32 41
116 172 c134 200 164 253 164 293 0 15 -33 95 -74 176 -40 81 -96 206 -124
277 -49 127 -122 353 -122 380 0 29 -52 74 -116 99 -57 23 -203 59 -386 96
l-58 11 0 428 0 428 162 32 c207 42 325 76 365 107 21 16 37 42 49 76 59 180
149 387 243 557 69 125 73 148 35 223 -30 58 -131 225 -199 326 -25 37 -45 74
-45 83 0 42 535 586 573 583 7 -1 93 -56 190 -122 189 -130 226 -152 254 -152
10 0 112 47 228 104 115 57 289 134 385 170 234 89 263 102 314 152 50 48 66
90 146 392 l44 162 392 0 392 0 5 -22z m-1306 -240 c39 -36 30 -99 -18 -124
-76 -39 -143 47 -95 120 22 34 79 36 113 4z m1953 -50 c149 -43 391 -157 494
-233 18 -14 18 -15 -8 -50 -15 -19 -31 -35 -36 -35 -5 0 -35 16 -67 36 -140
90 -362 179 -556 224 l-97 23 6 36 c10 63 5 61 101 40 48 -10 122 -29 163 -41z
m-2447 -11 c54 -33 77 -72 77 -130 0 -64 -24 -113 -71 -144 -104 -69 -249 10
-249 135 0 125 137 203 243 139z m-1408 -1256 c76 -34 135 -122 135 -202 0
-73 -61 -167 -127 -195 l-33 -14 0 -110 0 -110 -60 0 -60 0 0 110 0 109 -44
20 c-84 37 -136 146 -115 241 30 133 180 208 304 151z m5569 -78 c20 -61 27
-68 89 -83 26 -7 47 -18 47 -24 0 -7 -23 -18 -51 -25 -56 -15 -82 -45 -94
-107 -8 -47 -20 -43 -34 11 -6 25 -20 54 -31 65 -17 17 -78 40 -107 40 -7 0
-13 6 -13 14 0 9 20 19 50 26 58 14 85 43 102 107 12 51 19 47 42 -24z m165
-447 c44 -147 43 -149 -30 -159 l-36 -5 -27 99 c-16 55 -27 102 -25 103 14 12
67 35 80 36 11 0 22 -21 38 -74z m160 -1814 c15 -52 38 -74 94 -87 55 -14 55
-36 0 -50 -53 -13 -74 -33 -94 -92 -20 -61 -35 -64 -43 -9 -10 63 -32 86 -96
100 -66 15 -73 37 -15 48 76 15 90 31 121 137 7 21 19 3 33 -47z m-5919 -270
l0 -177 30 -13 c77 -35 124 -110 125 -203 0 -56 -4 -73 -30 -115 -89 -145
-308 -134 -387 20 -54 106 -4 243 110 300 l32 17 0 174 0 175 60 0 60 0 0
-178z m5785 -239 c-19 -133 -60 -293 -75 -293 -18 0 -80 35 -80 46 0 6 9 47
19 90 11 44 23 102 26 129 10 76 9 75 65 75 l51 0 -6 -47z m-4437 -1330 c27
-30 23 -68 -10 -95 -28 -25 -65 -22 -93 7 -32 31 -32 69 1 101 30 31 67 27
102 -13z m3097 -30 c14 -21 25 -41 25 -46 0 -13 -137 -97 -223 -137 -124 -57
-120 -56 -140 -12 -9 21 -17 41 -17 44 0 3 55 33 123 66 67 33 140 74 162 90
22 17 41 31 42 31 1 1 14 -16 28 -36z m-2625 -125 c75 -51 97 -122 62 -201
-22 -50 -62 -81 -119 -92 -46 -8 -120 28 -150 74 -32 47 -31 125 0 172 45 68
143 90 207 47z m2044 -111 c16 -11 37 -40 48 -63 25 -58 11 -114 -40 -162 -34
-32 -39 -34 -94 -30 -44 3 -64 10 -84 29 -53 49 -67 108 -41 172 17 39 35 55
84 73 45 16 87 9 127 -19z"/>
<path d="M5039 7821 c-59 -60 -31 -172 46 -187 46 -8 81 1 110 31 47 46 45
107 -5 156 -23 24 -37 29 -75 29 -38 0 -52 -5 -76 -29z"/>
<path d="M4910 7293 c-445 -45 -907 -238 -1237 -514 -232 -195 -421 -429 -559
-694 -286 -548 -339 -1131 -154 -1700 171 -527 490 -962 910 -1243 681 -455
1569 -503 2290 -125 637 334 1090 991 1206 1748 22 147 22 441 0 585 -79 507
-306 951 -668 1307 -136 134 -202 188 -344 279 -375 240 -804 366 -1234 362
-96 -1 -191 -3 -210 -5z m277 -334 c34 -13 80 -55 99 -91 22 -42 18 -126 -9
-173 -31 -56 -114 -99 -177 -91 -95 13 -160 88 -160 186 0 79 39 140 110 172
24 11 106 9 137 -3z m-537 -150 c6 -23 10 -42 8 -44 -2 -1 -46 -16 -98 -33
-82 -26 -154 -55 -297 -118 -33 -14 -33 -14 -48 22 -20 49 -20 49 18 72 69 43
338 140 389 142 12 0 21 -13 28 -41z m1100 -1 c79 -25 267 -113 335 -157 82
-52 184 -135 191 -154 6 -19 -20 -67 -37 -67 -5 0 -53 31 -106 69 -124 89
-289 173 -433 220 l-115 38 1 32 c3 56 8 60 56 50 24 -5 72 -19 108 -31z m68
-503 c142 -34 288 -121 392 -232 143 -153 209 -324 210 -539 0 -255 -127 -494
-338 -635 -43 -28 -79 -52 -80 -54 -2 -2 45 -104 103 -227 59 -123 149 -313
200 -423 51 -110 120 -257 154 -327 33 -69 67 -143 75 -162 l15 -36 -195 0
c-106 0 -194 1 -194 3 0 3 -200 425 -293 617 -35 74 -99 206 -140 293 l-76
157 -94 0 -93 0 72 146 c40 80 76 160 79 178 6 31 9 33 72 43 124 22 241 96
303 193 174 271 9 629 -305 666 -53 7 -57 9 -77 47 -11 22 -58 98 -104 169
-46 71 -84 134 -84 140 0 16 318 2 398 -17z m-1041 -5 c286 -68 505 -277 582
-555 60 -217 13 -494 -113 -665 -50 -66 -147 -157 -216 -201 -38 -24 -70 -48
-70 -52 0 -10 107 -169 346 -512 209 -301 434 -632 434 -639 0 -3 -91 -6 -203
-6 l-204 0 -215 303 c-118 166 -288 407 -378 535 l-163 232 -173 0 c-96 0
-177 1 -180 3 -4 1 -6 -221 -5 -493 1 -272 -1 -514 -5 -537 l-7 -43 -178 0
-179 0 0 1325 0 1325 423 0 c385 0 429 -2 504 -20z m1820 -96 c121 -137 234
-341 292 -529 38 -121 38 -133 5 -145 -43 -17 -60 2 -94 107 -58 182 -133 322
-257 480 l-73 94 20 30 c12 16 28 29 35 29 8 0 40 -30 72 -66z m-3103 -305
c20 -12 36 -22 36 -23 0 -1 -15 -38 -34 -82 -18 -44 -43 -118 -55 -164 -25
-102 -46 -124 -93 -99 -18 10 -20 17 -14 63 10 85 97 326 117 326 4 0 24 -9
43 -21z m3463 -707 c63 -34 87 -134 48 -199 -23 -39 -82 -73 -126 -73 -56 0
-111 38 -133 91 -24 60 -16 109 27 156 47 50 118 60 184 25z m-3529 -2 c50
-31 74 -76 69 -132 -11 -126 -155 -182 -243 -94 -52 52 -61 117 -24 185 31 58
134 80 198 41z m3482 -617 c11 -11 -21 -130 -61 -233 -35 -88 -127 -245 -144
-245 -6 0 -24 10 -40 23 l-29 23 23 37 c73 123 140 283 157 376 7 38 7 38 47
33 21 -3 43 -9 47 -14z m-3339 -400 c11 -21 9 -26 -16 -53 -16 -17 -35 -30
-42 -30 -10 0 -73 94 -73 110 0 3 17 15 38 27 l37 22 22 -26 c12 -15 27 -37
34 -50z m1600 -755 c84 -28 129 -90 129 -178 0 -61 -17 -96 -64 -138 -47 -41
-103 -56 -157 -42 -107 29 -162 125 -135 231 16 59 46 95 101 120 47 22 79 23
126 7z m-633 -99 c119 -45 121 -48 106 -107 -7 -26 -21 -25 -129 10 -98 32
-155 60 -155 75 0 30 31 75 48 70 9 -3 68 -25 130 -48z"/>
<path d="M4213 5903 c4 -38 7 -235 7 -440 l0 -372 223 3 c197 3 229 6 287 25
119 40 216 133 261 248 30 80 37 210 14 288 -43 149 -174 272 -323 304 -30 6
-146 11 -264 11 l-211 0 6 -67z"/>
<path d="M3119 7011 c-24 -25 -29 -38 -29 -79 0 -41 5 -55 29 -81 25 -26 36
-31 76 -31 40 0 52 5 81 34 26 26 34 42 34 71 0 73 -40 114 -113 115 -40 0
-53 -5 -78 -29z"/>
<path d="M6967 7020 c-34 -27 -48 -79 -36 -125 34 -123 219 -85 219 46 0 22
-10 41 -34 65 -29 29 -41 34 -79 34 -29 0 -53 -7 -70 -20z"/>
<path d="M2391 5194 c-36 -26 -54 -77 -41 -123 13 -50 40 -72 94 -78 42 -5 48
-3 81 30 29 29 35 42 35 77 0 23 -5 50 -10 61 -25 45 -115 64 -159 33z"/>
<path d="M7718 5194 c-36 -19 -48 -43 -48 -99 0 -97 99 -140 174 -75 40 36 51
70 36 116 -22 67 -97 94 -162 58z"/>
<path d="M3141 3246 c-51 -28 -66 -106 -31 -163 34 -57 121 -61 167 -8 45 51
42 108 -7 156 -32 32 -86 39 -129 15z"/>
<path d="M6978 3244 c-36 -19 -48 -43 -48 -94 0 -53 30 -97 73 -108 44 -11 73
-4 107 28 52 49 52 112 -2 162 -34 32 -85 37 -130 12z"/>
<path d="M5075 2431 c-73 -30 -91 -135 -33 -188 85 -77 222 21 178 127 -22 53
-92 82 -145 61z"/>
</g>
</svg>
